{
	"mains": [
		{
			"name": "Medallions of Roasted Sirloin of Beef",
			"id": 1,
			"type": "main",
			"ingredients": [],
			"description": "On roasted shallots and button mushrooms – 3 peppercorn cream sauce",
			"imgSrc" : "sirloin-medallions.jpg",
            "included" : true
		},
		{
			"name": "Supreme of Chicken ‘Parmesan’",
			"id": 2,
			"type": "main",
			"ingredients": [],
			"description": "Breaded breast of chicken, topped with our own marinara sauce, finished with parmesan cheese",
			"imgSrc" : "roasted-chicken-supreme.jpg",
            "included" : true
        },
		{
			"name": "Roast Norfolk Turkey Breast Dinner",
			"id": 3,
			"type": "main",
			"ingredients": [],
			"description": "With traditional accompaniments of stuffing, chipolata and bacon roll, homemade gravy",
			"imgSrc" : "norfolk-turkey-breasst.jpg"
		},
		{
			"name": "Homebaked Horseshoe Gammon Ham",
			"id": 4,
			"type": "main",
			"ingredients": [],
			"description": "Honey and mustard gravy",
			"imgSrc" : "gammon-horseshoe-steak.jpg",
            "included" : true
        },
		{
			"name": "Salmon in Filo Pastry",
			"id": 5,
			"type": "main",
			"ingredients": [],
			"description": "Fillet of salmon, topped with cream cheese and fresh spinach, wrapped in crisp filo pastry",
			"imgSrc" : "salmon-filo.JPG",
            "included" : true
        },
		{
			"name": "Selection of Homemade Sweets from the Trolley",
			"id": 6,
			"type": "main",
			"ingredients": [],
			"description": false,
			"imgSrc" : ""
		},
		{
			"name": "A Selection of British Cheeses and Biscuits",
			"id": 7,
			"type": "main",
			"ingredients": [],
			"description": false,
			"imgSrc" : "cheese-biscuits.jpg"
		},
		{
			"name": "Cafeteria Coffee",
			"id": 8,
			"type": "main",
			"ingredients": [],
			"description": false,
			"imgSrc" : "cafeteria-coffee.jpg"
		},
        {
            "name": "Roasted Vegetable Risotto",
            "id": 9,
            "type": "main",
            "ingredients": [],
            "description": "Finished with shavings of Twineham Grange vegetarian style parmesan cheese",
            "imgSrc" : "risotto.jpg"
        },
        {
            "name": "Mixed mushroom Stroganoff",
            "id": 10,
            "type": "main",
            "ingredients": [],
            "description": "Served with a side salad, long grain and wild rice",
            "imgSrc" : "mixed-mushroom-stroganoff-xmas-from-veg-soc.jpg"
        }
	],
	"starters": [
		{
			"name": "Homemade Soup of the Day",
			"id": 1,
			"type": "starter",
			"ingredients": [],
			"description": "",
			"imgSrc" : "homemade-soup.jpg",
            "included" : true
        },
		{
			"name": "Traditional Prawn Cocktail",
			"id": 2,
			"type": "starter",
			"ingredients": [],
			"description": "Served on mixed leaves, our own Marie Rose sauce, lemon wedge and Buttered Brown Bread",
			"imgSrc" : "prawn-cocktails.jpg"
		},
		{
			"name": "Homemade Chicken Liver and Brandy Pate",
			"id": 3,
			"type": "starter",
			"ingredients": [],
			"description": "Accompanied by Bramley Apple chutney and wholegrain toast",
			"imgSrc" : "chicken-liver.jpg",
            "included" : true
        },
		{
			"name": "Peach Knowle",
			"id": 4,
			"type": "starter",
			"ingredients": [],
			"description": "Our signature dish of half a baked peach filled with garlic and herb cream cheese, finished with brandy and cheddar cheese topping – served on a crouton",
			"imgSrc" : "peach-knowle.jpg",
            "included" : true
        },
		{
			"name": "Smoked Chicken, Orange and Watercress Salad",
			"id": 5,
			"type": "starter",
			"ingredients": [],
			"description": "Finished with Balsamic Vinaigrette Dressing",
			"imgSrc" : "smoked-chicken-orange.jpg",
            "included" : true
        },
		{
			"name": "Deep Fried Breaded Brie",
			"id": 6,
			"type": "starter",
			"ingredients": [],
			"description": "Served with cranberry sauce",
			"imgSrc" : "deep-fried-brie.jpg"
		},
		{
			"name": "Beef Tomato, Red Onion and Buffalo Mozzarella Bruschetta",
			"id": 7,
			"type": "starter",
			"ingredients": [],
			"description": "On grilled ciabatta bread drizzled with basil infused olive oil",
			"imgSrc" : "beef-tomato-bruschetta.jpg"
		}
	],
	"evening": [
		{
			"cold": [
				{
					"name": "MARINATED OLIVES",
					"id": 1,
					"type": "cold",
					"ingredients": [],
					"description": "",
					"imgSrc" : "marinated-olives.jpg"
				},
				{
					"name": "KING PRAWNS",
					"id": 1,
					"type": "cold",
					"ingredients": [],
					"description": "",
					"imgSrc" : "king-prawns.jpg"
				},
				{
					"name": "SMOKED SALMON PLATTER",
					"id": 1,
					"type": "cold",
					"ingredients": [],
					"description": "",
					"imgSrc" : "smoked-salmon-platter.jpg"
				},
				{
					"name": "PASTA SALAD",
					"id": 1,
					"type": "cold",
					"ingredients": [],
					"description": "",
					"imgSrc" : "pasta-salad.jpg"
				},
				{
					"name": "COLESLAW",
					"id": 1,
					"type": "cold",
					"ingredients": [],
					"description": "",
					"imgSrc" : "coleslaw.jpg"
				},
				{
					"name": "VEGETABLE CRUDITIES TO INCLUDE: PEPPERS, CELERY, CHERRY TOMATOES & CARROT",
					"id": 1,
					"type": "cold",
					"ingredients": [],
					"description": "",
					"imgSrc" : "veggie-crudities.jpg"
				},
				{
					"name": "MIXED LETTUCE LEAF BOWL",
					"id": 1,
					"type": "cold",
					"ingredients": [],
					"description": "",
					"imgSrc" : "mixed-lettuce.jpg"
				},
				{
					"name": "BREADSTICKS",
					"id": 1,
					"type": "cold",
					"ingredients": [],
					"description": "",
					"imgSrc" : "bread-sticks.jpg"
				},
				{
					"name": "CELERY WITH CREAM CHEESE & CHIVE DIP OR HOUMOUS",
					"id": 1,
					"type": "cold",
					"ingredients": [],
					"description": "",
					"imgSrc" : "celery-cream-cheese.JPG"
				},
				{
					"name": "HOMEMADE QUICHE (one vegetarian)",
					"id": 1,
					"type": "cold",
					"ingredients": [],
					"description": "",
					"imgSrc" : "quiche.jpg"
				},
				{
					"name": "ANTIPASTI:SALAMI SELECTION, PARMA HAM",
					"id": 1,
					"type": "cold",
					"ingredients": [],
					"description": "",
					"imgSrc" : "antipasti.jpg"
				},
				{
					"name": "COLD MEAT PLATTERS OF HAM & TURKEY",
					"id": 1,
					"type": "cold",
					"ingredients": [],
					"description": "",
					"imgSrc" : "meat-platter.jpg"
				},
				{
					"name": "CHICKEN LIVER TERRINE WITH MELBA TOAST & CHUTNEY",
					"id": 1,
					"type": "cold",
					"ingredients": [],
					"description": "",
					"imgSrc" : "chicken-liver.jpg"
				},
				{
					"name": "MINI YORKSHIRE PUDDINGS WITH ROAST BEEF & HORSERADISH",
					"id": 1,
					"type": "cold",
					"ingredients": [],
					"description": "",
					"imgSrc" : "mini-yorkshire-pudding.jpg"
				},
				{
					"name": "WATER BISCUITS WITH GOATS CHEESE & TOMATO TOPPING",
					"id": 1,
					"type": "cold",
					"ingredients": [],
					"description": "",
					"imgSrc" : "water-biscuits.jpg"
				}
			],
			"hot": [
				{
					"name": "CHICKEN GOUJONS",
					"id": 1,
					"type": "hot",
					"ingredients": [],
					"description": "",
					"imgSrc" : "chicken-goujons.jpg"
				},
				{
					"name": "CHICKEN CURRY",
					"id": 1,
					"type": "hot",
					"ingredients": [],
					"description": "",
					"imgSrc" : "chicken-curry.jpg"
				},
				{
					"name": "SAFFRON RICE",
					"id": 1,
					"type": "hot",
					"ingredients": [],
					"description": "",
					"imgSrc" : "saffron-rice.jpg"
				},
				{
					"name": "INDIAN SNACKS TO INCLUDE ONION BHAJI & SAMOSAS",
					"id": 1,
					"type": "hot",
					"ingredients": [],
					"description": "",
					"imgSrc" : "indian-snacks.jpg"
				},
				{
					"name": "SAUSAGES",
					"id": 1,
					"type": "hot",
					"ingredients": [],
					"description": "",
					"imgSrc" : "sausages.jpg"
				},
				{
					"name": "SPRING ROLLS",
					"id": 1,
					"type": "hot",
					"ingredients": [],
					"description": "",
					"imgSrc" : "spring-rolls.jpg"
				},
				{
					"name": "HOT NEW POTATOES",
					"id": 1,
					"type": "hot",
					"ingredients": [],
					"description": "",
					"imgSrc" : "new-potatoes.jpg"
				}
			],
			"sandwiches" : [
				{
					"name" : "EGG MAYONNAISE",
                    "type" : "sandwiches",
					"imgSrc" : "egg-mayonnaise-sandwich.jpg"
				},
				{
					"name" : "TUNA & SWEETCORN",
                    "type" : "sandwiches",
                    "imgSrc" : "tuna-sweetcorn.jpg"
				},
				{
					"name" : "CHICKEN & BACON",
                    "type" : "sandwiches",
					"imgSrc" : "chicken-bacon.jpg"
				},
				{
					"name" : "CHEESE & TOMATO/PICKLE/ONION",
					"imgSrc" : "cheese-tomato.jpg",
                    "type" : "sandwiches"
				},
				{
					"name" : "HAM WITH OPTIONAL MUSTARD",
                    "type" : "sandwiches",
					"imgSrc" : "ham-mustard.jpg"
				}
			]
		}
	]
}
